simulation/qsim/Signature_analyzer.msim.vcd
$comment
	File created using the following command:
		vcd file Signature_analyzer.msim.vcd -direction
$end
$date
	Fri Oct 16 12:44:11 2020
$end
$version
	ModelSim Version 10.5b
$end
$timescale
	1ps
$end

$scope module Signature_analyzer_vlg_vec_tst $end
$var reg 1 ! Clock $end
$var reg 1 " Reset $end
$var reg 5 # y [4:0] $end
$var wire 1 $ Out [4] $end
$var wire 1 % Out [3] $end
$var wire 1 & Out [2] $end
$var wire 1 ' Out [1] $end
$var wire 1 ( Out [0] $end

$scope module i1 $end
$var wire 1 ) gnd $end
$var wire 1 * vcc $end
$var wire 1 + unknown $end
$var tri1 1 , devclrn $end
$var tri1 1 - devpor $end
$var tri1 1 . devoe $end
$var wire 1 / y[4]~input_o $end
$var wire 1 0 Out[4]~output_o $end
$var wire 1 1 Out[3]~output_o $end
$var wire 1 2 Out[2]~output_o $end
$var wire 1 3 Out[1]~output_o $end
$var wire 1 4 Out[0]~output_o $end
$var wire 1 5 Clock~input_o $end
$var wire 1 6 Clock~inputclkctrl_outclk $end
$var wire 1 7 y[0]~input_o $end
$var wire 1 8 y[3]~input_o $end
$var wire 1 9 y[2]~input_o $end
$var wire 1 : y[1]~input_o $end
$var wire 1 ; inst17~combout $end
$var wire 1 < Reset~input_o $end
$var wire 1 = Reset~inputclkctrl_outclk $end
$var wire 1 > inst|inst1~q $end
$var wire 1 ? inst|inst3~0_combout $end
$var wire 1 @ inst|inst3~1_combout $end
$var wire 1 A inst|inst3~q $end
$var wire 1 B inst20~0_combout $end
$var wire 1 C inst|inst2~q $end
$var wire 1 D inst14~0_combout $end
$var wire 1 E inst14~combout $end
$var wire 1 F inst|inst~q $end
$var wire 1 G inst|inst4~feeder_combout $end
$var wire 1 H inst|inst4~q $end
$upscope $end
$upscope $end
$enddefinitions $end
#0
$dumpvars
0!
1"
b0 #
0(
0'
0&
0%
0$
0)
1*
x+
1,
1-
1.
0/
00
01
02
03
04
05
06
07
08
09
0:
0;
1<
1=
0>
0?
0@
0A
0B
0C
0D
0E
0F
0G
0H
$end
#10000
0"
0<
0=
#30000
b10000 #
b11000 #
18
1/
1D
1E
#40000
1!
15
16
1F
14
0D
1?
1(
1G
1;
0E
1@
#50000
b1000 #
b0 #
08
0/
1D
1E
#80000
0!
05
06
#110000
b100 #
b1100 #
19
18
0;
#120000
1!
15
16
1H
1A
11
10
0?
1$
1%
0@
1B
1@
#130000
b1000 #
b0 #
09
08
1;
#160000
0!
05
06
#190000
b1 #
17
1?
0E
0B
0@
#200000
1!
15
16
0F
0A
1>
13
01
04
0D
0?
0(
0%
1'
0G
0;
1B
1E
1@
#210000
b0 #
07
1?
0E
0B
0@
#240000
0!
05
06
